<?xml version="1.0" encoding="UTF-8" standalone="no"?>
<svg
   xmlns:dc="http://purl.org/dc/elements/1.1/"
   xmlns:cc="http://creativecommons.org/ns#"
   xmlns:rdf="http://www.w3.org/1999/02/22-rdf-syntax-ns#"
   xmlns:svg="http://www.w3.org/2000/svg"
   xmlns="http://www.w3.org/2000/svg"
   xmlns:sodipodi="http://sodipodi.sourceforge.net/DTD/sodipodi-0.dtd"
   xmlns:inkscape="http://www.inkscape.org/namespaces/inkscape"
   version="1.0"
   width="204.000000pt"
   height="208.000000pt"
   viewBox="0 0 204.000000 208.000000"
   preserveAspectRatio="xMidYMid meet"
   id="svg16"
   sodipodi:docname="gaming-big-dark.svg"
   inkscape:version="1.0 (4035a4fb49, 2020-05-01)">
  <metadata
     id="metadata22">
    <rdf:RDF>
      <cc:Work
         rdf:about="">
        <dc:format>image/svg+xml</dc:format>
        <dc:type
           rdf:resource="http://purl.org/dc/dcmitype/StillImage" />
      </cc:Work>
    </rdf:RDF>
  </metadata>
  <defs
     id="defs20" />
  <sodipodi:namedview
     inkscape:document-rotation="0"
     pagecolor="#ffffff"
     bordercolor="#666666"
     borderopacity="1"
     objecttolerance="10"
     gridtolerance="10"
     guidetolerance="10"
     inkscape:pageopacity="0"
     inkscape:pageshadow="2"
     inkscape:window-width="1920"
     inkscape:window-height="1017"
     id="namedview18"
     showgrid="false"
     inkscape:zoom="3.1298077"
     inkscape:cx="136"
     inkscape:cy="138.66667"
     inkscape:window-x="-8"
     inkscape:window-y="-8"
     inkscape:window-maximized="1"
     inkscape:current-layer="svg16" />
  <path
     style="fill:#ffffff;stroke:none;stroke-width:0.1;fill-opacity:1"
     id="path2"
     d="M 50.3,38.9 C 38.2,42 25.6,54.5 16.9,72 6.2,93.8 2.6,109.1 2.6,134.5 c -0.1,16.3 0.1,18.6 2.2,24.7 5.2,14.9 17.6,19.7 32.2,12.3 6.7,-3.4 14.3,-9.6 24.3,-19.9 l 8.8,-9.1 h 31.9 31.9 l 11.3,11.1 c 11.6,11.5 21.4,18.6 27.7,20.4 11.8,3.3 21.5,-1.8 26.3,-13.9 2.1,-5.1 2.3,-7.2 2.3,-25.1 0,-14.9 -0.4,-21.5 -1.8,-28 C 193,75.5 176,47.7 158.9,40.6 c -9.9,-4.1 -22.7,-2.8 -33.5,3.5 -9.5,5.6 -15.9,7.2 -26,6.7 C 91.7,50.4 90.3,50 79.8,44.6 69.6,39.5 67.7,38.8 61,38.5 56.9,38.3 52.1,38.4 50.3,38.9 Z m 15.6,8.6 c 2.3,0.8 6.8,3 10.1,4.9 8.5,5 14.8,6.6 26.1,6.6 11.3,0 19.2,-2.1 26.9,-7 5.5,-3.5 12.7,-6 17.4,-6 4.6,0 14.5,5.1 19.5,10.1 17.5,17.4 29.2,52.6 27.8,83.7 -0.5,13.3 -2.3,19.5 -6.8,23.8 -7,6.7 -16.2,2.6 -35.4,-15.8 -6.7,-6.5 -13.4,-12.2 -14.9,-12.8 -1.7,-0.6 -15.1,-1 -34.8,-1 -37.3,0 -35.3,-0.4 -45.5,10.4 -14.2,15.1 -27,23.5 -33.8,22.2 -10.1,-1.9 -14.4,-20.1 -11.1,-47.1 3.9,-32.9 19.8,-62.6 37.9,-71 6,-2.8 10.7,-3.1 16.6,-1 z" />
  <path
     style="fill:#ffffff;stroke:none;stroke-width:0.1;fill-opacity:1"
     id="path4"
     d="m 134.3,74.4 c -8.9,4 -8.7,16.5 0.4,20.2 8.4,3.6 16.9,-4.7 13.9,-13.5 -2,-6.1 -8.6,-9.2 -14.3,-6.7 z m 8.5,5.8 c 0.7,0.7 1.2,2.6 1.2,4.3 0,1.7 -0.5,3.6 -1.2,4.3 -0.7,0.7 -2.6,1.2 -4.3,1.2 -3.9,0 -5.5,-1.6 -5.5,-5.5 0,-1.7 0.5,-3.6 1.2,-4.3 1.6,-1.6 7,-1.6 8.6,0 z" />
  <path
     style="fill:#ffffff;stroke:none;stroke-width:0.1;fill-opacity:1"
     id="path6"
     d="m 43.6,77.6 c -1,1 -1.6,3.3 -1.6,6.5 V 89 H 37.1 C 30,89 29,90.4 29,100 c 0,9.6 1,11 8.1,11 H 42 v 4.9 c 0,7.1 1.4,8.1 11,8.1 9.6,0 11,-1 11,-8.1 V 111 h 4.9 C 76,111 77,109.6 77,100 77,90.4 76,89 68.9,89 H 64 V 84.1 C 64,77 62.6,76 53,76 c -5.8,0 -8.3,0.4 -9.4,1.6 z M 58,86.9 c 0,6.4 1.7,8.1 8.1,8.1 H 71 v 5 5 h -4.9 c -6.4,0 -8.1,1.7 -8.1,8.1 v 4.9 h -5 -5 v -4.9 C 48,106.7 46.3,105 39.9,105 H 35 v -5 -5 h 4.9 C 46.3,95 48,93.3 48,86.9 V 82 h 5 5 z" />
  <path
     style="fill:#ffffff;stroke:none;stroke-width:0.1;fill-opacity:1"
     id="path8"
     d="m 162.3,85.4 c -8.9,4 -8.7,16.5 0.4,20.2 8.4,3.6 16.9,-4.7 13.9,-13.5 -2,-6.1 -8.6,-9.2 -14.3,-6.7 z m 8.5,5.8 c 0.7,0.7 1.2,2.6 1.2,4.3 0,1.7 -0.5,3.6 -1.2,4.3 -0.7,0.7 -2.6,1.2 -4.3,1.2 -3.9,0 -5.5,-1.6 -5.5,-5.5 0,-1.7 0.5,-3.6 1.2,-4.3 1.6,-1.6 7,-1.6 8.6,0 z" />
  <path
     style="fill:#ffffff;stroke:none;stroke-width:0.1;fill-opacity:1"
     id="path10"
     d="m 134.3,102.4 c -8.9,4 -8.7,16.5 0.4,20.2 8.4,3.6 16.9,-4.7 13.9,-13.5 -2,-6.1 -8.6,-9.2 -14.3,-6.7 z m 8.5,5.8 c 0.7,0.7 1.2,2.6 1.2,4.3 0,1.7 -0.5,3.6 -1.2,4.3 -0.7,0.7 -2.6,1.2 -4.3,1.2 -3.9,0 -5.5,-1.6 -5.5,-5.5 0,-1.7 0.5,-3.6 1.2,-4.3 1.6,-1.6 7,-1.6 8.6,0 z" />
  <path
     style="fill:#ffffff;stroke:none;stroke-width:0.1;fill-opacity:1"
     id="path12"
     d="m 162.3,116.4 c -8.9,4 -8.7,16.5 0.4,20.2 8.4,3.6 16.9,-4.7 13.9,-13.5 -2,-6.1 -8.6,-9.2 -14.3,-6.7 z m 8.5,5.8 c 0.7,0.7 1.2,2.6 1.2,4.3 0,1.7 -0.5,3.6 -1.2,4.3 -0.7,0.7 -2.6,1.2 -4.3,1.2 -3.9,0 -5.5,-1.6 -5.5,-5.5 0,-1.7 0.5,-3.6 1.2,-4.3 1.6,-1.6 7,-1.6 8.6,0 z" />
</svg>
